P2
…
Participant_Info

Participant_Info

## # A tibble: 594,719 x 5
##    incident_id participant_name participant_age participant_age
##    <fct>       <chr>                      <dbl> <fct>           
##  1 461105      Julian Sims                   20 Adult 18+       
##  2 460726      Bernard Gillis                20 Adult 18+       
##  3 478855      Damien Bell                   25 Adult 18+       
##  4 478855      Desmen Noble                  31 Adult 18+       
##  5 478855      Herman Seagers                33 Adult 18+       
##  6 478855      Ladd Tate Sr                  34 Adult 18+       
##  7 478855      Tallis Moore                  33 Adult 18+       
##  8 478925      Stacie Philbrook              29 Adult 18+       
##  9 478925      Christopher Rat              33 Adult 18+       
## 10 478925      Anthony Ticali                56 Adult 18+       
## #  with 594,709 more rows, and 1 more variable: participant_gender <fct>

Participante_Incident_Info

Participant_Incident_Info

## # A tibble: 235,459 x 4
##    incident_id participant_name     participant_status          participant_type
##    <fct>       <chr>                <fct>                       <fct>           
##  1 461105      Julian Sims          Arrested                    Victim          
##  2 460726      Bernard Gillis       Killed                      Victim          
##  3 478855      Damien Bell          Injured, Unharmed, Arrested Subject-Suspect 
##  4 478855      Desmen Noble         Unharmed, Arrested          Subject-Suspect 
##  5 478855      Herman Seagers       Killed                      Victim          
##  6 478855      Ladd Tate Sr         Injured                     Victim          
##  7 478855      Tallis Moore         Injured                     Victim          
##  8 478925      Stacie Philbrook     Killed                      Victim          
##  9 478925      Christopher Ratliffe Killed                      Victim          
## 10 478925      Anthony Ticali       Killed                      Victim          
## #  with 235,449 more rows

Gun_Info

Gun_Info

## # A tibble: 130,191 x 4
##    incident_id participant_name            gun_stolen gun_type       
##    <fct>       <chr>                       <fct>      <fct>          
##  1 478855      Damien Bell                 Unknown    Unknown        
##  2 478855      Desmen Noble                Unknown    Unknown        
##  3 478959      Danielle Imani Jameison     Unknown    Handgun        
##  4 478959      Maurice Eugene Edmonds, Sr. Unknown    Handgun        
##  5 479363      Greg Griego                 Unknown    22 LR          
##  6 479363      Sara Griego                 Unknown    223 Rem [AR-15]
##  7 491674      Demetrius Davis             Unknown    Unknown        
##  8 479413      Terry Robinson Jr.          Unknown    Unknown        
##  9 479561      Ofc.                        Unknown    Shotgun        
## 10 479580      Teng Yang                   Unknown    9mm            
## #  with 130,181 more rows

Incident_Stats

Incident_Stats$date <- as.POSIXct(Incident_Stats$date) #fixes posixlt
Incident_Stats

## # A tibble: 239,677 x 9
##    incident_id date                state city_or_county latitude longitude
##    <chr>       <dttm>              <fct> <fct>             <dbl>     <dbl>
##  1 461105      2013-01-01 00:00:00 Penn Mckeesport         40.3     -79.9
##  2 460726      2013-01-01 00:00:00 Cali Hawthorne          33.9    -118. 
##  3 478855      2013-01-01 00:00:00 Ohio  Lorain             41.4     -82.1
##  4 478925      2013-01-05 00:00:00 Colo Aurora             39.7    -105. 
##  5 478959      2013-01-07 00:00:00 Nort Greensboro         36.1     -80.0
##  6 478948      2013-01-07 00:00:00 Okla Tulsa              36.2     -96.0
##  7 479363      2013-01-19 00:00:00 New  Albuquerque        35.0    -107. 
##  8 479374      2013-01-21 00:00:00 Loui New Orleans        29.9     -90.1
##  9 479389      2013-01-21 00:00:00 Cali Brentwood          38.0    -122. 
## 10 492151      2013-01-23 00:00:00 Mary Baltimore          39.3     -76.6
## #  with 239,667 more rows, and 3 more variables: n_killed <dbl>,
## #   n_guns_involved <dbl>, n_injured <dbl>

Incident_Government_Info

Incident_Government_Info

## # A tibble: 239,677 x 4
##    incident_id state_house_district state_senate_district congressional_district
##    <chr>       <fct>                <fct>                 <fct>                 
##  1 461105      <NA>                 <NA>                  14                    
##  2 460726      62                   35                    43                    
##  3 478855      56                   13                    9                     
##  4 478925      40                   28                    6                     
##  5 478959      62                   27                    6                     
##  6 478948      72                   11                    1                     
##  7 479363      10                   14                    1                     
##  8 479374      93                   5                     2                     
##  9 479389      11                   7                     9                     
## 10 492151      <NA>                 44                    7                     
## #  with 239,667 more rows

Incident_Characteristics

Incident_Characteristics

## # A tibble: 576,861 x 2
##    incident_id incident_characteristics                                         
##    <fct>       <fct>                                                            
##  1 461105      Shot - Wounded/Injured                                           
##  2 461105      Mass Shooting (4+ victims injured or killed excluding the subjec
##  3 461105      Possession (gun(s) found during commission of other crimes)      
##  4 461105      Possession of gun by felon or prohibited person                  
##  5 460726      Shot - Wounded/Injured                                           
##  6 460726      Shot - Dead (murder, accidental, suicide)                        
##  7 460726      Mass Shooting (4+ victims injured or killed excluding the subjec
##  8 460726      Gang involvement                                                 
##  9 478855      Shot - Wounded/Injured                                           
## 10 478855      Shot - Dead (murder, accidental, suicide)                        
## #  with 576,851 more rows
…
Guns_Per_Capita <- as_tibble(Guns_Per_Capita)

#clean & tidy data
Guns_Per_Capita$num_of_guns_registered <- sub(",", "", Guns_Per_Capita$num_of_guns_registered)
Guns_Per_Capita$num_of_guns_registered <- as.numeric(Guns_Per_Capita$num_of_guns_registered)
Guns_Per_Capita$num_of_guns_per_capita <- as.character(Guns_Per_Capita$num_of_guns_per_capita)
options(digits = 5)
Guns_Per_Capita$num_of_guns_per_capita <- as.numeric(Guns_Per_Capita$num_of_guns_per_capita)
Guns_Per_Capita$state <- sub("Washington D.C.", "Washington", Guns_Per_Capita$state)

Guns_Per_Capita

## # A tibble: 51 x 4
##    rank  state         num_of_guns_per_capita num_of_guns_registered
##    <fct> <chr>                          <dbl>                  <dbl>
##  1 1     Wyoming                        229.                  132806
##  2 2     Washington                      68.0                  47228
##  3 3     New Hampshire                   46.8                  64135
##  4 4     New Mexico                      46.7                  97580
##  5 5     Virginia                        36.3                 307822
##  6 6     Alabama                         33.2                 161641
##  7 7     Idaho                           28.9                  49566
##  8 8     Arkansas                        26.6                  79841
##  9 9     Nevada                          25.6                  76888
## 10 10    Arizona                         25.6                 179738
## #  with 41 more rows
…
Population_2017 <- as_tibble(Population_2017)

#clean & tidy data
Population_2017$state <- sub("\\d*\\. ", "", Population_2017$state)
Population_2017$population <- sub(",", "", Population_2017$population)
Population_2017$population <- sub(",", "", Population_2017$population)
Population_2017$population <- as.numeric(Population_2017$population)
Population_2017$state <- as.character(Population_2017$state)

Population_2017

## # A tibble: 51 x 2
##    state          population
##    <chr>               <dbl>
##  1 California       39536653
##  2 Texas            28304596
##  3 Florida          20984400
##  4 New York         19849399
##  5 Pennsylvania     12805537
##  6 Illinois         12802023
##  7 Ohio             11658609
##  8 Georgia          10429379
##  9 North Carolina   10273419
## 10 Michigan          9962311
## #  with 41 more rows
…
# Now join the talbe we just created with our population table                  
State_Info <- State_Info %>% 
                    left_join(Population_2017, by="state") %>%
                    select(num_of_guns_per_capita,num_of_guns_registered,n_injured,n_killed,n_guns_involved,population,state)
                    
State_Info$state <- as.character(State_Info$state)

#create incidents per capita column by calculating number of incidents and dividing it by the population
State_Info$num_incidents <- as.numeric(ave(State_Info$state, State_Info$state, FUN = length))
State_Info$num_incidents_per_capita <- State_Info$num_incidents/State_Info$population

State_Info

## # A tibble: 62,282 x 9
##    num_of_guns_per num_of_guns_reg n_injured n_killed n_guns_involved
##               <dbl>            <dbl>     <dbl>    <dbl>           <dbl>
##  1             14.8            99159         0        1               1
##  2             11.6            22234         0        0               1
##  3             11.6            22234         1        0               1
##  4             18.4           236377         1        0               1
##  5             46.7            97580         0        0               1
##  6             36.3           307822         1        0               1
##  7             46.7            97580         0        0               1
##  8             46.7            97580         0        0               1
##  9             14.9           173405         1        0               1
## 10             17.1           114019         0        0               1
## #  with 62,272 more rows, and 4 more variables: population <dbl>, state <chr>,
## #   num_incidents <dbl>, num_incidents_per_capita <dbl>
…
