P3
…
Looking back at our tables

Participant_Info

Participant_Info

## # A tibble: 594,719 x 5
##    incident_id participant_name participant_age participant_age
##    <fct>       <chr>                      <dbl> <fct>           
##  1 461105      Julian Sims                   20 Adult 18+       
##  2 460726      Bernard Gillis                20 Adult 18+       
##  3 478855      Damien Bell                   25 Adult 18+       
##  4 478855      Desmen Noble                  31 Adult 18+       
##  5 478855      Herman Seagers                33 Adult 18+       
##  6 478855      Ladd Tate Sr                  34 Adult 18+       
##  7 478855      Tallis Moore                  33 Adult 18+       
##  8 478925      Stacie Philbrook              29 Adult 18+       
##  9 478925      Christopher Rat              33 Adult 18+       
## 10 478925      Anthony Ticali                56 Adult 18+       
## #  with 594,709 more rows, and 1 more variable: participant_gender <fct>

Participante_Incident_Info

Participant_Incident_Info

## # A tibble: 235,459 x 4
##    incident_id participant_name     participant_status          participant_type
##    <fct>       <chr>                <fct>                       <fct>           
##  1 461105      Julian Sims          Arrested                    Victim          
##  2 460726      Bernard Gillis       Killed                      Victim          
##  3 478855      Damien Bell          Injured, Unharmed, Arrested Subject-Suspect 
##  4 478855      Desmen Noble         Unharmed, Arrested          Subject-Suspect 
##  5 478855      Herman Seagers       Killed                      Victim          
##  6 478855      Ladd Tate Sr         Injured                     Victim          
##  7 478855      Tallis Moore         Injured                     Victim          
##  8 478925      Stacie Philbrook     Killed                      Victim          
##  9 478925      Christopher Ratliffe Killed                      Victim          
## 10 478925      Anthony Ticali       Killed                      Victim          
## #  with 235,449 more rows

Gun_Info

Gun_Info

## # A tibble: 130,191 x 4
##    incident_id participant_name            gun_stolen gun_type       
##    <fct>       <chr>                       <fct>      <fct>          
##  1 478855      Damien Bell                 Unknown    Unknown        
##  2 478855      Desmen Noble                Unknown    Unknown        
##  3 478959      Danielle Imani Jameison     Unknown    Handgun        
##  4 478959      Maurice Eugene Edmonds, Sr. Unknown    Handgun        
##  5 479363      Greg Griego                 Unknown    22 LR          
##  6 479363      Sara Griego                 Unknown    223 Rem [AR-15]
##  7 491674      Demetrius Davis             Unknown    Unknown        
##  8 479413      Terry Robinson Jr.          Unknown    Unknown        
##  9 479561      Ofc.                        Unknown    Shotgun        
## 10 479580      Teng Yang                   Unknown    9mm            
## #  with 130,181 more rows

Incident_Stats

Incident_Stats$date <- as.POSIXct(Incident_Stats$date) #fixes posixlt
Incident_Stats

## # A tibble: 239,677 x 9
##    incident_id date                state city_or_county latitude longitude
##    <chr>       <dttm>              <fct> <fct>             <dbl>     <dbl>
##  1 461105      2013-01-01 00:00:00 Penn Mckeesport         40.3     -79.9
##  2 460726      2013-01-01 00:00:00 Cali Hawthorne          33.9    -118. 
##  3 478855      2013-01-01 00:00:00 Ohio  Lorain             41.4     -82.1
##  4 478925      2013-01-05 00:00:00 Colo Aurora             39.7    -105. 
##  5 478959      2013-01-07 00:00:00 Nort Greensboro         36.1     -80.0
##  6 478948      2013-01-07 00:00:00 Okla Tulsa              36.2     -96.0
##  7 479363      2013-01-19 00:00:00 New  Albuquerque        35.0    -107. 
##  8 479374      2013-01-21 00:00:00 Loui New Orleans        29.9     -90.1
##  9 479389      2013-01-21 00:00:00 Cali Brentwood          38.0    -122. 
## 10 492151      2013-01-23 00:00:00 Mary Baltimore          39.3     -76.6
## #  with 239,667 more rows, and 3 more variables: n_killed <dbl>,
## #   n_guns_involved <dbl>, n_injured <dbl>

Incident_Government_Info

Incident_Government_Info

## # A tibble: 239,677 x 4
##    incident_id state_house_district state_senate_district congressional_district
##    <chr>       <fct>                <fct>                 <fct>                 
##  1 461105      <NA>                 <NA>                  14                    
##  2 460726      62                   35                    43                    
##  3 478855      56                   13                    9                     
##  4 478925      40                   28                    6                     
##  5 478959      62                   27                    6                     
##  6 478948      72                   11                    1                     
##  7 479363      10                   14                    1                     
##  8 479374      93                   5                     2                     
##  9 479389      11                   7                     9                     
## 10 492151      <NA>                 44                    7                     
## #  with 239,667 more rows

Incident_Characteristics

Incident_Characteristics

## # A tibble: 576,861 x 2
##    incident_id incident_characteristics                                         
##    <fct>       <fct>                                                            
##  1 461105      Shot - Wounded/Injured                                           
##  2 461105      Mass Shooting (4+ victims injured or killed excluding the subjec
##  3 461105      Possession (gun(s) found during commission of other crimes)      
##  4 461105      Possession of gun by felon or prohibited person                  
##  5 460726      Shot - Wounded/Injured                                           
##  6 460726      Shot - Dead (murder, accidental, suicide)                        
##  7 460726      Mass Shooting (4+ victims injured or killed excluding the subjec
##  8 460726      Gang involvement                                                 
##  9 478855      Shot - Wounded/Injured                                           
## 10 478855      Shot - Dead (murder, accidental, suicide)                        
## #  with 576,851 more rows

##State_Info

State_Info

## # A tibble: 62,282 x 9
##    num_of_guns_per num_of_guns_reg n_injured n_killed n_guns_involved
##               <dbl>            <dbl>     <dbl>    <dbl>           <dbl>
##  1             14.8            99159         0        1               1
##  2             11.6            22234         0        0               1
##  3             11.6            22234         1        0               1
##  4             18.4           236377         1        0               1
##  5             46.7            97580         0        0               1
##  6             36.3           307822         1        0               1
##  7             46.7            97580         0        0               1
##  8             46.7            97580         0        0               1
##  9             14.9           173405         1        0               1
## 10             17.1           114019         0        0               1
## #  with 62,272 more rows, and 4 more variables: population <dbl>, state <chr>,
## #   num_incidents <dbl>, num_incidents_per_capita <dbl>
…
  #convert data frame to tible
  GunLaws2017 <- as_tibble(GunLaws2017)
  
  #make number of gun laws numeric (tidy)
  GunLaws2017$num_gun_laws <- as.numeric(as.character(GunLaws2017$num_gun_laws))
  
  write.csv(GunLaws2017, file="GunLaws2017.csv")
}

GunLaws2017 <- read.csv(file="GunLaws2017.csv", header=TRUE, sep=",")
GunLaws2017 <- as_tibble(GunLaws2017)

GunLaws2017

## # A tibble: 50 x 3
##        X state       num_gun_laws
##    <int> <fct>              <int>
##  1     1 Alaska                 3
##  2     2 Alabama               10
##  3     3 Arkansas              11
##  4     4 Arizona                8
##  5     5 California           106
##  6     6 Colorado              30
##  7     7 Connecticut           92
##  8     8 Delaware              40
##  9     9 Florida               21
## 10    10 Georgia                6
## #  with 40 more rows
…
Merge the old State_Info table with the scraped data

#join by state
State_Info <- State_Info %>% 
                    left_join(GunLaws2017, by="state") %>%
                    select(state,num_incidents,population,num_gun_laws,num_incidents_per_capita,num_of_guns_per_capita,num_of_guns_registered,n_injured,n_killed,n_guns_involved)

## Warning: Column `state` joining character vector and factor, coercing into
## character vector

State_Info

## # A tibble: 62,282 x 10
##    state num_incidents population num_gun_laws num_incidents_p num_of_guns_per
##    <chr>         <dbl>      <dbl>        <int>            <dbl>            <dbl>
##  1 Tenn          1874    6715984           22         0.000279             14.8
##  2 Nebr           439    1920076           22         0.000229             11.6
##  3 Nebr           439    1920076           22         0.000229             11.6
##  4 Penn          2172   12805537           37         0.000170             18.4
##  5 New            448    2088070           10         0.000215             46.7
##  6 Virg          1473    8470020           13         0.000174             36.3
##  7 New            448    2088070           10         0.000215             46.7
##  8 New            448    2088070           10         0.000215             46.7
##  9 Ohio           2701   11658609           16         0.000232             14.9
## 10 Indi          1483    6666818           12         0.000222             17.1
## #  with 62,272 more rows, and 4 more variables: num_of_guns_registered <dbl>,
## #   n_injured <dbl>, n_killed <dbl>, n_guns_involved <dbl>
…
State_Info <- State_Info %>% 
                    left_join(total_injured, by="state") %>%
                    select(state,num_incidents,population,num_gun_laws,num_incidents_per_capita,num_of_guns_per_capita,num_of_guns_registered,n_injured,n_killed,n_guns_involved, total_killed, total_injured)

#calculate per capita 
State_Info$num_injured_per_capita <- State_Info$total_injured/State_Info$population
State_Info$num_killed_per_capita <- State_Info$total_killed/State_Info$population

State_Info

## # A tibble: 62,282 x 14
##    state num_incidents population num_gun_laws num_incidents_p num_of_guns_per
##    <chr>         <dbl>      <dbl>        <int>            <dbl>            <dbl>
##  1 Tenn          1874    6715984           22         0.000279             14.8
##  2 Nebr           439    1920076           22         0.000229             11.6
##  3 Nebr           439    1920076           22         0.000229             11.6
##  4 Penn          2172   12805537           37         0.000170             18.4
##  5 New            448    2088070           10         0.000215             46.7
##  6 Virg          1473    8470020           13         0.000174             36.3
##  7 New            448    2088070           10         0.000215             46.7
##  8 New            448    2088070           10         0.000215             46.7
##  9 Ohio           2701   11658609           16         0.000232             14.9
## 10 Indi          1483    6666818           12         0.000222             17.1
## #  with 62,272 more rows, and 8 more variables: num_of_guns_registered <dbl>,
## #   n_injured <dbl>, n_killed <dbl>, n_guns_involved <dbl>, total_killed <dbl>,
## #   total_injured <dbl>, num_injured_per_capita <dbl>,
## #   num_killed_per_capita <dbl>
…
